module go-api-pipeline

go 1.16

//require (
//	github.com/go-sql-driver/mysql v1.6.0 // indirect
//	github.com/jinzhu/gorm v1.9.16
//	github.com/jinzhu/now v1.1.2 // indirect
//	github.com/mattn/go-sqlite3 v1.14.5 // indirect
//)

require github.com/gorilla/mux v1.8.0
